	method	rule	b1	t	p	R2	F	df1	df2
1	aleph	rule1	0.0114243276532032	49.1403749205954	1.54309002624197e-166	0.864650820741317	2414.77644733668	1	378
2	aleph	rule2	0.00156567668309815	50.469104922549	2.43361404961826e-170	0.870774998475715	2547.13055168326	1	378
3	aleph	rule3	0.00723376652437064	109.828976142635	3.47355421674657e-289	0.969615134686654	12062.4040005394	1	378
4	inthelex_batch	rule1	0.0326245538685603	73.4708361013382	3.35290703417574e-226	0.934556376065592	5397.96375742969	1	378
5	inthelex_batch	rule2	1.50579809048163	7.94692156923303	6.34781958254988e-13	0.348618937332804	63.1535624275411	1	118
6	inthelex_batch	rule3	0.025194985963908	70.6713154727437	2.95961046927157e-220	0.929640840342329	4994.43483064806	1	378
7	inthelex_incremental	rule1	0.00427292719262373	69.7608277205415	2.81037988412873e-218	0.92792549671301	4866.57308425506	1	378
8	inthelex_incremental	rule2	0.000142773349868396	0.021809834525225	0.491305578616842	1.25838170223465e-06	0.000475668882017716	1	378
9	inthelex_incremental	rule3	0.00442502559959039	76.3629488086063	3.85773845054001e-232	0.939123572222567	5831.29995074583	1	378
